Text Prediction
…
And the most common bigrams without stopwords : use the separate() function of the tidyr package, which split column into multiple based on a separator :

library(tidyr)
separate_bigrams <- bigrams %>% 
    separate(bigram, c("word1","word2"), sep=" ")
filtered_bigrams <- separate_bigrams %>%
    filter(!word1 %in% stop_words$word) %>%
    filter(!word2 %in% stop_words$word)
# new count
filtered_bigrams %>% count(word1, word2, sort=T)

Source: local data frame [3,404 x 3]
Groups: word1 [2,331]

      word1    word2     n
      <chr>    <chr> <int>
1     happy birthday    80
2  mother's      day    40
3  tomorrow    night    40
4      wait      til    40
5     happy   friday    30
6       hey     guys    30
7    social    media    30
8     aaron  rodgers    20
9     album    cover    20
10   angela  russell    20
# ... with 3,394 more rows
…
